{
	"id": "7b741433-b9d4-4013-ba01-49bd67cfcc9d",
	"name": "PROD",
	"values": [
		{
			"key": "HOST",
			"value": "172.31.31.173",
			"enabled": true
		},
		{
			"key": "PORT",
			"value": "8082",
			"enabled": true
		}
	],
	"_postman_variable_scope": "environment",
	"_postman_exported_at": "2020-11-11T12:26:22.898Z",
	"_postman_exported_using": "Postman/7.35.0"
}